19,3,42,2022-01-27 23:59:24,2022-01-27 23:59:00,20,TERMINADO,"Motivo: con gusto

Antecedentes: lo atendemos

Observaciones:asdfasdfasd",[object Object],[object Object],[object Object],[object Object]
20,3,34,2022-01-28 00:00:35,2022-01-28 00:00:00,20,TERMINADO,"Motivo: erererer;

Antecedentes:sdfgsgsdfg

Observaciones:sdfgsdfgsdfgsdfgsdfgsdfg",[object Object],[object Object],[object Object],[object Object]
21,3,40,2022-02-02 23:52:25,2022-02-17 23:52:00,20,TERMINADO,"Motivo: algun motivo que no se

Antecedentes: no tiene

Observaciones: tampoco",[object Object],[object Object],[object Object],[object Object]
22,4,34,2022-02-11 02:46:23,2022-02-12 02:46:00,20,TERMINADO,"Motivo: El paciente presenta sintomas de covid
 
Antecedentes: El paciente es hipertenso

Observaciones: el paciente tiene mucho dolor de cabeza",[object Object],[object Object],[object Object],[object Object]
23,3,34,2022-02-15 22:51:46,2022-02-15 22:51:00,21,TERMINADO,"Motivo: asdfasdfasdfasdfasdfa

Antecedentes: adsfasdfasdfasd

Observaciones: asdfasdfasdfasdfasdfasdfasdfasdfasdfasdf",[object Object],[object Object],[object Object],[object Object]
24,3,42,2022-02-25 23:28:44,2022-02-26 01:28:00,20,TERMINADO,"Motivo:asasdfasdf

Antecedentes:asdfasdfas

Observaciones:asdfasdfasdfas",[object Object],[object Object],[object Object],[object Object]
25,4,34,2022-02-25 23:29:34,2022-02-25 23:29:00,21,TERMINADO,"Motivo: asdfas

Antecedentes: adsfgasdf
 
Observaciones: dasfgasdfsdf",[object Object],[object Object],[object Object],[object Object]
26,3,34,2022-02-26 20:29:11,2022-02-26 20:29:00,21,TERMINADO,"Motivo: qwetqwer

Antecedentes: regwertgwert

Observaciones: rfghsdfghsdfgsd",[object Object],[object Object],[object Object],[object Object]
27,4,34,2022-05-09 23:10:05,2022-05-10 23:10:00,20,TERMINADO,"Motivo: dfhsdfhgsdfh

Antecedentes:sdfhsdfhsdfhsdfhsd

Observaciones:sdfhsdrfhsdfhsdfh",[object Object],[object Object],[object Object],[object Object]
28,5,34,2022-06-02 21:41:40,2022-06-02 09:42:00,20,TERMINADO,"Motivo: El Paciente presenta sintomas de covid 19

Antecedentes: El paciente padece de alergias transitorias

Observaciones: no hay observaciones",[object Object],[object Object],[object Object],[object Object]
29,7,43,2022-06-24 23:20:44,2022-06-24 23:20:00,20,PENDIENTE,,[object Object],[object Object],[object Object],
30,7,34,2022-06-24 23:22:40,2022-06-24 23:22:00,20,TERMINADO,"Motivo:


ahsdfklasdkflasd

Antecedentes:

asdfkhaskldfasd
Observaciones:
asdfkjhaskldfhklasdhflasdf",[object Object],[object Object],[object Object],[object Object]
